[gd_scene load_steps=4 format=2]

[ext_resource path="res://src/Player.tscn" type="PackedScene" id=1]
[ext_resource path="res://src/Moon.tscn" type="PackedScene" id=2]
[ext_resource path="res://src/Backy.tscn" type="PackedScene" id=3]

[node name="FirstLevel" type="Node2D"]

[node name="Player" parent="." instance=ExtResource( 1 )]
position = Vector2( 512, 752 )

[node name="Moon" parent="." instance=ExtResource( 2 )]
position = Vector2( 512, 192 )
mass = 90000.0

[node name="Backy" parent="." instance=ExtResource( 3 )]
position = Vector2( 88, 392 )

[node name="Backy2" parent="." instance=ExtResource( 3 )]
position = Vector2( 848, 568 )
